output.txt
5 modules and 0 UDP read.
	However, due to incremental compilation, no re-compilation is necessary.
ld -r -m elf_i386 -o pre_vcsobj_1_1.o --whole-archive pre_vcsobj_1_1.a --no-whole-archive
ld -r -m elf_i386 -o pre_vcsobj_1_2.o --whole-archive pre_vcsobj_1_2.a --no-whole-archive
ld -r -m elf_i386 -o pre_vcsobj_1_3.o --whole-archive pre_vcsobj_1_3.a --no-whole-archive
../simv up to date
SENDING OUT to endpoint 4
                   4 stall = 0, sent_sync = 1, result = 0000000000000000000000, last = x
                   6 stall = 0, sent_sync = 0, result = 0000000000000000000000, last = 0
                   8 stall = 0, sent_sync = 0, result = 0000000000000000000001, last = 0
                  10 stall = 0, sent_sync = 0, result = 0000000000000000000002, last = 0
                  12 stall = 0, sent_sync = 0, result = 0000000000000000000004, last = 0
                  14 stall = 0, sent_sync = 0, result = 0000000000000000000008, last = 0
                  16 stall = 0, sent_sync = 0, result = 0000000000000000000010, last = 0
                  18 stall = 0, sent_sync = 0, result = 0000000000000000000021, last = 0
                  20 stall = 0, sent_sync = 0, result = 0000000000000000000043, last = 0
                  22 stall = 0, sent_sync = 0, result = 0000000000000000000087, last = 0
                  24 stall = 0, sent_sync = 0, result = 000000000000000000010f, last = 0
                  26 stall = 0, sent_sync = 0, result = 000000000000000000021e, last = 0
                  28 stall = 0, sent_sync = 0, result = 000000000000000000043d, last = 0
                  30 stall = 0, sent_sync = 0, result = 000000000000000000087a, last = 0
                  32 stall = 0, sent_sync = 0, result = 00000000000000000010f4, last = 0
                  34 stall = 0, sent_sync = 0, result = 00000000000000000021e8, last = 0
                  36 stall = 0, sent_sync = 0, result = 00000000000000000043d0, last = 0
                  38 stall = 0, sent_sync = 0, result = 00000000000000000087a0, last = 0
                  40 stall = 0, sent_sync = 0, result = 0000000000000000010f40, last = 0
                  42 stall = 0, sent_sync = 0, result = 0000000000000000021e81, last = 0
                  44 stall = 0, sent_sync = 0, result = 0000000000000000043d02, last = 0
                  46 stall = 0, sent_sync = 0, result = 0000000000000000087a04, last = 0
                  48 stall = 0, sent_sync = 0, result = 000000000000000010f408, last = 0
                  50 stall = 0, sent_sync = 0, result = 000000000000000021e810, last = 0
                  52 stall = 0, sent_sync = 0, result = 000000000000000043d020, last = 1
                  54 stall = 0, sent_sync = 0, result = 000000000000000087a041, last = 0
                  56 stall = 0, sent_sync = 0, result = 0000000000000000000000, last = 0
SENDING OUT to endpoint 4 with stall
                  60 stall = 0, sent_sync = 1, result = 0000000000000000000000, last = 0
                  62 stall = 0, sent_sync = 0, result = 0000000000000000000000, last = 0
                  64 stall = 0, sent_sync = 0, result = 0000000000000000000001, last = 0
                  66 stall = 0, sent_sync = 0, result = 0000000000000000000002, last = 0
                  68 stall = 0, sent_sync = 0, result = 0000000000000000000004, last = 0
                  70 stall = 0, sent_sync = 0, result = 0000000000000000000008, last = 0
                  72 stall = 0, sent_sync = 0, result = 0000000000000000000010, last = 0
                  74 stall = 0, sent_sync = 0, result = 0000000000000000000021, last = 0
                  76 stall = 0, sent_sync = 0, result = 0000000000000000000043, last = 0
                  78 stall = 0, sent_sync = 0, result = 0000000000000000000087, last = 0
                  80 stall = 0, sent_sync = 0, result = 000000000000000000010f, last = 0
                  82 stall = 0, sent_sync = 0, result = 000000000000000000021e, last = 0
                  84 stall = 0, sent_sync = 0, result = 000000000000000000043d, last = 0
                  86 stall = 0, sent_sync = 0, result = 000000000000000000087a, last = 0
                  88 stall = 0, sent_sync = 0, result = 00000000000000000010f4, last = 0
                  90 stall = 0, sent_sync = 0, result = 00000000000000000021e8, last = 0
                  92 stall = 0, sent_sync = 0, result = 00000000000000000043d0, last = 0
                  94 stall = 1, sent_sync = 0, result = 00000000000000000087a0, last = 0
                 104 stall = 0, sent_sync = 0, result = 00000000000000000087a0, last = 0
                 106 stall = 0, sent_sync = 0, result = 0000000000000000010f40, last = 0
                 108 stall = 0, sent_sync = 0, result = 0000000000000000021e81, last = 0
                 110 stall = 0, sent_sync = 0, result = 0000000000000000043d02, last = 0
                 112 stall = 0, sent_sync = 0, result = 0000000000000000087a04, last = 0
                 114 stall = 0, sent_sync = 0, result = 000000000000000010f408, last = 0
                 116 stall = 0, sent_sync = 0, result = 000000000000000021e810, last = 0
                 118 stall = 0, sent_sync = 0, result = 000000000000000043d020, last = 1
                 120 stall = 0, sent_sync = 0, result = 000000000000000087a041, last = 0
SENDING DATA = CAFEBABEDEADBEEF
                 122 stall = 0, sent_sync = 1, result = 00000000000000010f4082, last = 0
                 124 stall = 0, sent_sync = 0, result = 00000000000000021e8104, last = 0
                 126 stall = 0, sent_sync = 0, result = 00000000000000043d0209, last = 0
                 128 stall = 0, sent_sync = 0, result = 00000000000000087a0413, last = 0
                 130 stall = 0, sent_sync = 0, result = 0000000000000010f40826, last = 0
                 132 stall = 0, sent_sync = 0, result = 0000000000000021e8104c, last = 0
                 134 stall = 0, sent_sync = 0, result = 0000000000000043d02098, last = 0
                 136 stall = 0, sent_sync = 0, result = 0000000000000087a04130, last = 0
                 138 stall = 0, sent_sync = 0, result = 000000000000010f408261, last = 0
                 140 stall = 0, sent_sync = 0, result = 000000000000021e8104c3, last = 0
                 142 stall = 0, sent_sync = 0, result = 000000000000043d020987, last = 0
                 144 stall = 0, sent_sync = 0, result = 000000000000087a04130f, last = 0
                 146 stall = 0, sent_sync = 0, result = 00000000000010f408261f, last = 0
                 148 stall = 0, sent_sync = 0, result = 00000000000021e8104c3f, last = 0
                 150 stall = 0, sent_sync = 0, result = 00000000000043d020987e, last = 0
                 152 stall = 0, sent_sync = 0, result = 00000000000087a04130fd, last = 0
                 154 stall = 0, sent_sync = 0, result = 0000000000010f408261fb, last = 0
                 156 stall = 0, sent_sync = 0, result = 0000000000021e8104c3f7, last = 0
                 158 stall = 0, sent_sync = 0, result = 0000000000043d020987ee, last = 0
                 160 stall = 0, sent_sync = 0, result = 0000000000087a04130fdd, last = 0
                 162 stall = 0, sent_sync = 0, result = 000000000010f408261fbb, last = 0
                 164 stall = 0, sent_sync = 0, result = 000000000021e8104c3f77, last = 0
                 166 stall = 0, sent_sync = 0, result = 000000000043d020987eef, last = 0
                 168 stall = 0, sent_sync = 0, result = 000000000087a04130fddf, last = 0
                 170 stall = 0, sent_sync = 0, result = 00000000010f408261fbbe, last = 0
                 172 stall = 0, sent_sync = 0, result = 00000000021e8104c3f77d, last = 0
                 174 stall = 0, sent_sync = 0, result = 00000000043d020987eefb, last = 0
                 176 stall = 0, sent_sync = 0, result = 00000000087a04130fddf6, last = 0
                 178 stall = 0, sent_sync = 0, result = 0000000010f408261fbbed, last = 0
                 180 stall = 0, sent_sync = 0, result = 0000000021e8104c3f77db, last = 0
                 182 stall = 0, sent_sync = 0, result = 0000000043d020987eefb6, last = 0
                 184 stall = 0, sent_sync = 0, result = 0000000087a04130fddf6d, last = 0
                 186 stall = 0, sent_sync = 0, result = 000000010f408261fbbeda, last = 0
                 188 stall = 0, sent_sync = 0, result = 000000021e8104c3f77db5, last = 0
                 190 stall = 0, sent_sync = 0, result = 000000043d020987eefb6a, last = 0
                 192 stall = 0, sent_sync = 0, result = 000000087a04130fddf6d5, last = 0
                 194 stall = 0, sent_sync = 0, result = 00000010f408261fbbedab, last = 0
                 196 stall = 0, sent_sync = 0, result = 00000021e8104c3f77db57, last = 0
                 198 stall = 0, sent_sync = 0, result = 00000043d020987eefb6af, last = 0
                 200 stall = 0, sent_sync = 0, result = 00000087a04130fddf6d5e, last = 0
                 202 stall = 0, sent_sync = 0, result = 0000010f408261fbbedabd, last = 0
                 204 stall = 0, sent_sync = 0, result = 0000021e8104c3f77db57b, last = 0
                 206 stall = 0, sent_sync = 0, result = 0000043d020987eefb6af6, last = 0
                 208 stall = 0, sent_sync = 0, result = 0000087a04130fddf6d5ed, last = 0
                 210 stall = 0, sent_sync = 0, result = 000010f408261fbbedabdb, last = 0
                 212 stall = 0, sent_sync = 0, result = 000021e8104c3f77db57b7, last = 0
                 214 stall = 0, sent_sync = 0, result = 000043d020987eefb6af6f, last = 0
                 216 stall = 0, sent_sync = 0, result = 000087a04130fddf6d5edf, last = 0
                 218 stall = 0, sent_sync = 0, result = 00010f408261fbbedabdbe, last = 0
                 220 stall = 0, sent_sync = 0, result = 00021e8104c3f77db57b7d, last = 0
                 222 stall = 0, sent_sync = 0, result = 00043d020987eefb6af6fa, last = 0
                 224 stall = 0, sent_sync = 0, result = 00087a04130fddf6d5edf5, last = 0
                 226 stall = 0, sent_sync = 0, result = 0010f408261fbbedabdbea, last = 0
                 228 stall = 0, sent_sync = 0, result = 0021e8104c3f77db57b7d5, last = 0
                 230 stall = 0, sent_sync = 0, result = 0043d020987eefb6af6fab, last = 0
                 232 stall = 0, sent_sync = 0, result = 0087a04130fddf6d5edf57, last = 0
                 234 stall = 0, sent_sync = 0, result = 010f408261fbbedabdbeae, last = 0
                 236 stall = 0, sent_sync = 0, result = 021e8104c3f77db57b7d5d, last = 0
                 238 stall = 0, sent_sync = 0, result = 043d020987eefb6af6faba, last = 0
                 240 stall = 0, sent_sync = 0, result = 087a04130fddf6d5edf575, last = 0
                 242 stall = 0, sent_sync = 0, result = 10f408261fbbedabdbeaeb, last = 0
                 244 stall = 0, sent_sync = 0, result = 21e8104c3f77db57b7d5d7, last = 0
                 246 stall = 0, sent_sync = 0, result = 43d020987eefb6af6fabaf, last = 0
                 248 stall = 0, sent_sync = 0, result = 87a04130fddf6d5edf575f, last = 0
                 250 stall = 0, sent_sync = 0, result = 0f408261fbbedabdbeaebf, last = 0
                 252 stall = 0, sent_sync = 0, result = 1e8104c3f77db57b7d5d7f, last = 0
                 254 stall = 0, sent_sync = 0, result = 3d020987eefb6af6fabafe, last = 0
                 256 stall = 0, sent_sync = 0, result = 7a04130fddf6d5edf575fd, last = 0
                 258 stall = 0, sent_sync = 0, result = f408261fbbedabdbeaebfa, last = 0
                 260 stall = 0, sent_sync = 0, result = e8104c3f77db57b7d5d7f5, last = 0
                 262 stall = 0, sent_sync = 0, result = d020987eefb6af6fabafea, last = 0
                 264 stall = 0, sent_sync = 0, result = a04130fddf6d5edf575fd4, last = 0
                 266 stall = 0, sent_sync = 0, result = 408261fbbedabdbeaebfa9, last = 0
                 268 stall = 0, sent_sync = 0, result = 8104c3f77db57b7d5d7f53, last = 0
                 270 stall = 0, sent_sync = 0, result = 020987eefb6af6fabafea7, last = 0
                 272 stall = 0, sent_sync = 0, result = 04130fddf6d5edf575fd4f, last = 0
                 274 stall = 0, sent_sync = 0, result = 08261fbbedabdbeaebfa9e, last = 0
                 276 stall = 0, sent_sync = 0, result = 104c3f77db57b7d5d7f53d, last = 0
                 278 stall = 0, sent_sync = 0, result = 20987eefb6af6fabafea7b, last = 0
                 280 stall = 0, sent_sync = 0, result = 4130fddf6d5edf575fd4f6, last = 0
                 282 stall = 0, sent_sync = 0, result = 8261fbbedabdbeaebfa9ed, last = 0
                 284 stall = 0, sent_sync = 0, result = 04c3f77db57b7d5d7f53db, last = 0
                 286 stall = 0, sent_sync = 0, result = 0987eefb6af6fabafea7b7, last = 0
                 288 stall = 0, sent_sync = 0, result = 130fddf6d5edf575fd4f6f, last = 0
                 290 stall = 0, sent_sync = 0, result = 261fbbedabdbeaebfa9ede, last = 0
                 292 stall = 0, sent_sync = 0, result = 4c3f77db57b7d5d7f53dbc, last = 0
                 294 stall = 0, sent_sync = 0, result = 987eefb6af6fabafea7b78, last = 0
                 296 stall = 0, sent_sync = 0, result = 30fddf6d5edf575fd4f6f1, last = 0
                 298 stall = 0, sent_sync = 0, result = 61fbbedabdbeaebfa9ede2, last = 1
                 300 stall = 0, sent_sync = 0, result = c3f77db57b7d5d7f53dbc5, last = 0
$finish called from file "usbHost.sv", line 232.
$finish at simulation time                  302
